Name,WeightClassKg,Division,Best3SquatKg,Best3BenchKg,Best3DeadliftKg,TotalKg,Sex,Event,Equipment,Place,State
Kristen Smith,82.5,F-T2,113.4,47.63,113.4,274.42,F,SBD,Single-ply,1,
Christal Cobb,82.5,F-T2,113.4,47.63,113.4,274.42,F,SBD,Single-ply,2,
