Division,WeightClassKg,Place,Name,Team,BodyweightKg,Best3SquatKg,Best3BenchKg,Best3DeadliftKg,TotalKg,Equipment,Event,Sex
Boys,51.71,1,Brooks Guzman,Weslaco East,51.44,181.44,90.72,167.83,439.98,Single-ply,SBD,M
Boys,51.71,2,Eddie Olvera,Los Fresnos,51.66,142.88,90.72,188.24,421.84,Single-ply,SBD,M
Boys,51.71,3,Alex Berrones,Brownsville Lopez,49.8,111.13,72.57,161.03,344.73,Single-ply,SBD,M
Boys,51.71,4,Anthony Garcia,Weslaco,48.9,120.2,81.65,140.61,342.46,Single-ply,SBD,M
Boys,51.71,5,Jose Quintero,Brownsville Lopez,51.26,120.2,70.31,142.88,333.39,Single-ply,SBD,M
Boys,51.71,6,Kevin Sierra,PSJA Southwest,51.53,102.06,77.11,147.42,326.59,Single-ply,SBD,M
Boys,51.71,7,Josh Yzaguirre,San Benito,49.9,108.86,65.77,131.54,306.17,Single-ply,SBD,M
Boys,51.71,8,Joe Anthony Tamez,PSJA Memorial,51.66,97.52,61.23,129.27,288.03,Single-ply,SBD,M
Boys,51.71,9,Cody Acosta,PSJA,46.45,95.25,52.16,111.13,258.55,Single-ply,SBD,M
Boys,51.71,10,Jj Garza,Donna,50.8,99.79,45.36,97.52,242.67,Single-ply,SBD,M
Boys,59.87,1,Juan Rivera,Los Fresnos,55.88,172.37,120.2,192.78,485.34,Single-ply,SBD,M
Boys,55.79,2,Alejandro Flores,Weslaco East,54.88,170.1,108.86,181.44,460.4,Single-ply,SBD,M
Boys,55.79,3,Angel Flores #2,Weslaco East,54.88,170.1,99.79,188.24,458.13,Single-ply,SBD,M
Boys,55.79,4,Kaleb Espinoza,Donna,55.07,172.37,83.91,181.44,437.72,Single-ply,SBD,M
Boys,55.79,5,Mauro Vargas,La Joya Juarez-Lincoln,55.07,158.76,102.06,170.1,430.91,Single-ply,SBD,M
Boys,55.79,6,Brandon Sauceda,PSJA Memorial,53.71,154.22,83.91,161.03,399.16,Single-ply,SBD,M
Boys,55.79,7,Edgar Hernandez,Brownsville Rivera,54.07,147.42,81.65,167.83,396.89,Single-ply,SBD,M
Boys,55.79,8,Mike Barajas,Hidalgo Early College,55.47,142.88,83.91,165.56,392.36,Single-ply,SBD,M
Boys,55.79,9,Hector Elizondo,Sharyland Pioneer,53.07,140.61,83.91,156.49,381.02,Single-ply,SBD,M
Boys,55.79,10,Joel Sanchez #2,Brownsville Veterans Memorial,55.61,142.88,77.11,151.95,371.95,Single-ply,SBD,M
Boys,55.79,11,Ovidio Garza,Brownsville Lopez,55.25,142.88,74.84,147.42,365.14,Single-ply,SBD,M
Boys,55.79,12,Damian Palomo,Weslaco,55.25,129.27,63.5,151.95,344.73,Single-ply,SBD,M
Boys,59.87,13,Jose Sanchez,Brownsville Lopez,56.02,129.27,61.23,133.81,324.32,Single-ply,SBD,M
Boys,55.79,14,Juan Dominguez,PSJA North,52.66,113.4,61.23,124.74,299.37,Single-ply,SBD,M
Boys,55.79,15,Darren Hernandez,Donna,55.79,108.86,61.23,108.86,278.96,Single-ply,SBD,M
Boys,55.79,DQ,Jorge Moreno,La Joya Palmview,55.52,,,,,Single-ply,SBD,M
Boys,67.13,1,Danny Diaz,Brownsville Lopez,60.06,183.7,129.27,201.85,514.83,Single-ply,SBD,M
Boys,67.13,2,Randy Medellin,San Benito,60.1,174.63,102.06,183.7,460.4,Single-ply,SBD,M
Boys,59.87,3,Vince Hernandez,Pharr Valley View,59.51,167.83,92.99,183.7,444.52,Single-ply,SBD,M
Boys,67.13,4,Mike Tamez,Donna,60.1,154.22,92.99,172.37,419.57,Single-ply,SBD,M
Boys,59.87,5,Carlos Jaimez,Hidalgo Early College,57.92,136.08,81.65,176.9,394.63,Single-ply,SBD,M
Boys,59.87,6,Mario Villarreal,Weslaco,58.69,136.08,74.84,158.76,369.68,Single-ply,SBD,M
Boys,59.87,7,Branden Barajas,Hidalgo Early College,58.42,124.74,70.31,172.37,367.41,Single-ply,SBD,M
Boys,59.87,8,Joel Oyervides,Mission,58.88,113.4,86.18,136.08,335.66,Single-ply,SBD,M
Boys,59.87,9,Artemio Balderas,PSJA Memorial,59.6,129.27,77.11,129.27,335.66,Single-ply,SBD,M
Boys,67.13,10,Luis Martinez,PSJA,60.06,104.33,61.23,127.01,292.57,Single-ply,SBD,M
Boys,59.87,DQ,Angel Flores #2,Mercedes,56.79,129.27,88.45,,,Single-ply,SBD,M
Boys,59.87,DQ,Gerardo Jasso,La Joya Palmview,59.6,102.06,,,,Single-ply,SBD,M
Boys,67.13,1,Victor Acosta,Pharr Valley View,66.5,219.99,133.81,190.51,544.31,Single-ply,SBD,M
Boys,74.84,2,Rogelio Pulido,Brownsville Lopez,67.36,192.78,102.06,244.94,539.77,Single-ply,SBD,M
Boys,67.13,3,Joshua Garcia,Weslaco,66.68,204.12,113.4,210.92,528.44,Single-ply,SBD,M
Boys,67.13,4,Oscar Monjaras,Pharr Valley View,65.59,210.92,104.33,201.85,517.1,Single-ply,SBD,M
Boys,67.13,5,Jesus Rodriguez,PSJA Memorial,67.13,204.12,120.2,192.78,517.1,Single-ply,SBD,M
Boys,67.13,6,Eric Tong,Brownsville Hanna,66.13,204.12,106.59,204.12,514.83,Single-ply,SBD,M
Boys,67.13,7,Denzel Castro,Weslaco East,66.32,190.51,117.93,204.12,512.56,Single-ply,SBD,M
Boys,67.13,8,Aaron Anguiano,Pharr Valley View,66.86,199.58,104.33,188.24,492.15,Single-ply,SBD,M
Boys,67.13,9,Branden Ruiz,Donna,66.86,183.7,111.13,197.31,492.15,Single-ply,SBD,M
Boys,74.84,10,Jordan Aguilar,Mercedes,67.22,181.44,120.2,185.97,487.61,Single-ply,SBD,M
Boys,67.13,11,Hugo Salas,Brownsville Lopez,65.68,183.7,99.79,190.51,474,Single-ply,SBD,M
Boys,74.84,12,Yayo Sauceda,Brownsville Pace,67.36,179.17,102.06,190.51,471.74,Single-ply,SBD,M
Boys,67.13,13,Sammy Cruz,Los Fresnos,64.73,165.56,115.67,183.7,464.93,Single-ply,SBD,M
Boys,67.13,14,Josesito Hernan,Los Fresnos,65.91,181.44,97.52,183.7,462.66,Single-ply,SBD,M
Boys,67.13,15,Sal Gonzalez,Sharyland Pioneer,65.45,154.22,104.33,183.7,442.25,Single-ply,SBD,M
Boys,67.13,16,Jacob Zuniga,San Benito,63.64,170.1,86.18,176.9,433.18,Single-ply,SBD,M
Boys,67.13,17,Jorge Cavazos,Mercedes,66.95,163.29,104.33,163.29,430.91,Single-ply,SBD,M
Boys,67.13,18,Daniel Rueda,Brownsville Rivera,65.41,156.49,102.06,156.49,415.04,Single-ply,SBD,M
Boys,67.13,19,JJ Camacho,Brownsville Pace,66.45,151.95,102.06,158.76,412.77,Single-ply,SBD,M
Boys,67.13,20,Gilbert Rosales,Mission Veterans Memorial,64.86,136.08,97.52,156.49,390.09,Single-ply,SBD,M
Boys,67.13,21,Joel Guerrero,Donna,63.32,145.15,72.57,167.83,385.55,Single-ply,SBD,M
Boys,67.13,22,David Gonzalez,Pharr Valley View,62.23,138.35,79.38,156.49,374.21,Single-ply,SBD,M
Boys,67.13,23,Sean De La Garza,Mission Veterans Memorial,66.68,129.27,92.99,151.95,374.21,Single-ply,SBD,M
Boys,67.13,24,Joseph Gonzales,Mercedes,66.32,140.61,92.99,129.27,362.87,Single-ply,SBD,M
Boys,67.13,25,Johnny Castillo,PSJA North,66.32,124.74,72.57,145.15,342.46,Single-ply,SBD,M
Boys,67.13,26,Franky Guttierrez,McAllen,66,124.74,83.91,124.74,333.39,Single-ply,SBD,M
Boys,67.13,27,Eric Grant,Brownsville Veterans Memorial,66.59,117.93,79.38,124.74,322.05,Single-ply,SBD,M
Boys,67.13,DQ,Daniel Mireles,PSJA Memorial,63.37,,,,,Single-ply,SBD,M
Boys,67.13,DQ,Diego Cano,McAllen,63.68,,,,,Single-ply,SBD,M
Boys,74.84,1,Eliseo Garzoria,Los Fresnos,74.43,204.12,117.93,258.55,580.6,Single-ply,SBD,M
Boys,74.84,2,Erin Estevanes,Weslaco,73.98,199.58,133.81,244.94,578.33,Single-ply,SBD,M
Boys,74.84,3,Emilio Tamez,Weslaco East,74.57,206.38,129.27,226.8,562.45,Single-ply,SBD,M
Boys,74.84,4,Gilbert Guajardo,Pharr Valley View,73.57,204.12,127.01,213.19,544.31,Single-ply,SBD,M
Boys,74.84,5,Zeke Cardenas,Brownsville Hanna,70.99,199.58,111.13,204.12,514.83,Single-ply,SBD,M
Boys,74.84,6,Diego Hernandez,La Joya Palmview,70.85,204.12,120.2,183.7,508.02,Single-ply,SBD,M
Boys,74.84,7,Angel Loera,Brownsville Rivera,74.43,192.78,115.67,192.78,501.22,Single-ply,SBD,M
Boys,74.84,8,Jerry Alvarez,Rio Hondo,74.43,183.7,120.2,192.78,496.68,Single-ply,SBD,M
Boys,74.84,9,Rick Gonzalez,Brownsville Hanna,68.22,199.58,108.86,181.44,489.88,Single-ply,SBD,M
Boys,74.84,10,Jacob Hernandez,PSJA Memorial,73.39,181.44,122.47,183.7,487.61,Single-ply,SBD,M
Boys,74.84,11,Edward Alvarez,San Benito,72.39,176.9,106.59,185.97,469.47,Single-ply,SBD,M
Boys,74.84,12,Romeo Lopez,Sharyland Pioneer,73.39,172.37,115.67,181.44,469.47,Single-ply,SBD,M
Boys,74.84,13,Brandon Ramos,La Joya,71.35,204.12,95.25,167.83,467.2,Single-ply,SBD,M
Boys,74.84,14,Eric Ginez,Donna,72.39,185.97,102.06,174.63,462.66,Single-ply,SBD,M
Boys,74.84,15,Isaac Castro,Brownsville Rivera,69.4,174.63,102.06,183.7,460.4,Single-ply,SBD,M
Boys,74.84,16,Narciso Guevarra,Brownsville Pace,70.53,170.1,106.59,176.9,453.59,Single-ply,SBD,M
Boys,74.84,17,Julian Flores,San Benito,71.03,165.56,92.99,158.76,417.3,Single-ply,SBD,M
Boys,74.84,18,Roel Luna,San Benito,67.68,142.88,92.99,163.29,399.16,Single-ply,SBD,M
Boys,82.1,19,Octavio De La Cruz,Hidalgo Early College,75.02,142.88,111.13,145.15,399.16,Single-ply,SBD,M
Boys,74.84,20,Michael Valle,Hidalgo Early College,69.76,151.95,81.65,163.29,396.89,Single-ply,SBD,M
Boys,74.84,21,Scott Barbosa,PSJA Southwest,68.49,136.08,88.45,147.42,371.95,Single-ply,SBD,M
Boys,74.84,22,Dracio Alvarado,Brownsville Rivera,71.49,117.93,79.38,170.1,367.41,Single-ply,SBD,M
Boys,74.84,DQ,Fabian Perez,La Joya Palmview,70.85,142.88,,,,Single-ply,SBD,M
Boys,74.84,DQ,Mark Martinez,McAllen,70.13,,,,,Single-ply,SBD,M
Boys,74.84,DQ,Marino Garza,McAllen,74.84,133.81,,,,Single-ply,SBD,M
Boys,74.84,DQ,Sylvester Cedillo,Mission Veterans Memorial,71.8,,,,,Single-ply,SBD,M
Boys,74.84,DQ,Alec Gonzalez,Mercedes,70.76,,,,,Single-ply,SBD,M
Boys,74.84,DQ,Jon Anthony Saenz,PSJA Memorial,67.68,,,,,Single-ply,SBD,M
Boys,74.84,DQ,Justin Jimenez,PSJA,69.4,,,,,Single-ply,SBD,M
Boys,82.1,1,Ram Mendoza,Weslaco East,81.37,238.14,149.69,235.87,623.69,Single-ply,SBD,M
Boys,89.81,2,Rigo Ayala,Edcouch-Elsa,82.28,240.4,151.95,222.26,614.62,Single-ply,SBD,M
Boys,82.1,3,Fabian Rodriguez,Los Fresnos,80.88,224.53,136.08,226.8,587.4,Single-ply,SBD,M
Boys,82.1,4,Brandon Martinez,Brownsville Veterans Memorial,81.69,226.8,122.47,233.6,582.87,Single-ply,SBD,M
Boys,82.1,5,Robert Garza,Donna,80.74,238.14,124.74,210.92,573.79,Single-ply,SBD,M
Boys,82.1,6,Ricardo Vela,Hidalgo Early College,76.66,213.19,111.13,238.14,562.45,Single-ply,SBD,M
Boys,82.1,7,Luis Ortiz,Los Fresnos,79.02,204.12,120.2,226.8,551.11,Single-ply,SBD,M
Boys,82.1,8,Salvador Castillo,Mission Sharyland,78.06,195.04,104.33,226.8,526.17,Single-ply,SBD,M
Boys,82.1,9,Trey Caballero,Weslaco,81.42,183.7,115.67,208.65,508.02,Single-ply,SBD,M
Boys,82.1,10,Yonny Villarreal,La Joya,81.37,195.04,104.33,195.04,494.42,Single-ply,SBD,M
Boys,82.1,11,Sal Mendez,PSJA Southwest,81.01,158.76,140.61,192.78,492.15,Single-ply,SBD,M
Boys,82.1,12,Senon Moya,Sharyland Pioneer,79.88,192.78,124.74,151.95,469.47,Single-ply,SBD,M
Boys,82.1,13,Carlos Martinez #18,Sharyland Pioneer,81.01,174.63,104.33,183.7,462.66,Single-ply,SBD,M
Boys,82.1,14,Armando Azogar,Brownsville Rivera,79.74,165.56,104.33,188.24,458.13,Single-ply,SBD,M
Boys,82.1,15,Ivan Davis,McAllen Memorial,82.05,165.56,99.79,190.51,455.86,Single-ply,SBD,M
Boys,82.1,16,Isaac Aleman,Hidalgo Early College,81.47,161.03,111.13,181.44,453.59,Single-ply,SBD,M
Boys,82.1,17,Bryan Gonzalez,Brownsville Rivera,78.93,142.88,124.74,176.9,444.52,Single-ply,SBD,M
Boys,82.1,18,Andrew Leija,PSJA North,78.11,142.88,99.79,185.97,428.64,Single-ply,SBD,M
Boys,82.1,19,Ernesto Perciado,Pharr Valley View,81.47,158.76,97.52,170.1,426.38,Single-ply,SBD,M
Boys,82.1,20,Andrew Cantu,Mission Sharyland,80.83,154.22,95.25,167.83,417.3,Single-ply,SBD,M
Boys,82.1,21,Anthony Vallejo,Mercedes,80.47,147.42,90.72,172.37,410.5,Single-ply,SBD,M
Boys,82.1,22,Josue Sanchez,Mission,76.93,158.76,99.79,142.88,401.43,Single-ply,SBD,M
Boys,82.1,23,Angel Rivera,La Joya Palmview,80.65,138.35,83.91,142.88,365.14,Single-ply,SBD,M
Boys,82.1,24,Ulysses Vasquez,McAllen Memorial,78.38,136.08,77.11,136.08,349.27,Single-ply,SBD,M
Boys,89.81,DQ,Justin Leanos,La Joya,82.28,201.85,104.33,,,Single-ply,SBD,M
Boys,82.1,DQ,Lazaro Rodriguez,PSJA Memorial,81.92,197.31,99.79,,,Single-ply,SBD,M
Boys,82.1,DQ,Jesus Reyna,Weslaco,81.37,222.26,120.2,,,Single-ply,SBD,M
Boys,82.1,DQ,Robert Hernandez,La Joya Juarez-Lincoln,77.11,208.65,,,,Single-ply,SBD,M
Boys,82.1,DQ,Ramon Delgado,Brownsville Hanna,81.69,226.8,115.67,,,Single-ply,SBD,M
Boys,82.1,DQ,Sam Longoria,Brownsville Hanna,80.29,229.06,,,,Single-ply,SBD,M
Boys,82.1,DQ,Ricky Sauceda,Brownsville Lopez,76.48,192.78,,,,Single-ply,SBD,M
Boys,89.81,1,Gilbert Trevino,Weslaco,89.36,272.16,149.69,247.21,669.05,Single-ply,SBD,M
Boys,89.81,2,Aaron Zapata,Los Fresnos,89.72,258.55,142.88,260.82,662.24,Single-ply,SBD,M
Boys,89.81,3,Julio Garcia,La Joya Juarez-Lincoln,87.18,219.99,136.08,231.33,587.4,Single-ply,SBD,M
Boys,89.81,4,Jose Nicoleau,Sharyland Pioneer,87.72,206.38,149.69,210.92,566.99,Single-ply,SBD,M
Boys,99.79,5,Fernando Hernandez,La Joya Juarez-Lincoln,90.04,210.92,133.81,222.26,566.99,Single-ply,SBD,M
Boys,89.81,6,Alex Chairez,Brownsville Veterans Memorial,83.42,219.99,124.74,217.72,562.45,Single-ply,SBD,M
Boys,99.79,7,Juan Aguirre,San Benito,89.9,195.04,138.35,229.06,562.45,Single-ply,SBD,M
Boys,89.81,8,Daniel Ramos,Brownsville Lopez,88.27,206.38,133.81,217.72,557.92,Single-ply,SBD,M
Boys,99.79,9,Rey Villarreal,Mission Veterans Memorial,89.99,204.12,124.74,229.06,557.92,Single-ply,SBD,M
Boys,89.81,10,Julio Reyna,PSJA Southwest,88,206.38,120.2,213.19,539.77,Single-ply,SBD,M
Boys,89.81,11,Hugo Carerra,Mission Veterans Memorial,88.45,183.7,133.81,219.99,537.51,Single-ply,SBD,M
Boys,89.81,12,Thor Hernandez,PSJA North,87,213.19,122.47,195.04,530.7,Single-ply,SBD,M
Boys,89.81,13,Joseph Rios,Mission,85.91,188.24,133.81,192.78,514.83,Single-ply,SBD,M
Boys,89.81,14,Victor Garza,PSJA Southwest,86.36,206.38,124.74,181.44,512.56,Single-ply,SBD,M
Boys,89.81,15,Kevin Reyna,PSJA Southwest,84.91,179.17,124.74,181.44,485.34,Single-ply,SBD,M
Boys,89.81,16,Chris Walker,Brownsville Pace,87.18,188.24,97.52,192.78,478.54,Single-ply,SBD,M
Boys,89.81,17,David Cardenas,Brownsville Pace,88.54,181.44,97.52,192.78,471.74,Single-ply,SBD,M
Boys,89.81,18,David Cantu,Mission Sharyland,89.63,197.31,102.06,172.37,471.74,Single-ply,SBD,M
Boys,99.79,19,Albino Mendez,Pharr Valley View,89.9,204.12,88.45,170.1,462.66,Single-ply,SBD,M
Boys,89.81,20,Lazaro Bernabe,Hidalgo Early College,89.54,183.7,88.45,188.24,460.4,Single-ply,SBD,M
Boys,89.81,21,Michael Sanchez,San Benito,83.01,172.37,102.06,183.7,458.13,Single-ply,SBD,M
Boys,89.81,22,Jesus Barrientes,Mercedes,82.92,170.1,108.86,170.1,449.06,Single-ply,SBD,M
Boys,89.81,23,Fernando Castro,Hidalgo Early College,88.63,161.03,106.59,174.63,442.25,Single-ply,SBD,M
Boys,89.81,24,Bryan Smith #4,Mercedes,82.78,161.03,108.86,163.29,433.18,Single-ply,SBD,M
Boys,89.81,25,Ivan Cortez,Brownsville Rivera,88.22,145.15,102.06,179.17,426.38,Single-ply,SBD,M
Boys,89.81,26,David Garza,PSJA North,87.63,142.88,79.38,158.76,381.02,Single-ply,SBD,M
Boys,89.81,27,Gustavo Castorera,Mission,89.81,122.47,83.91,136.08,342.46,Single-ply,SBD,M
Boys,89.81,DQ,Eddie Nunez,La Joya,89.81,185.97,156.49,,,Single-ply,SBD,M
Boys,89.81,DQ,Pedro Hernandez,Rio Hondo,85.46,165.56,97.52,,,Single-ply,SBD,M
Boys,89.81,DQ,Carlos Martinez #15,PSJA,88.81,,,,,Single-ply,SBD,M
Boys,89.81,DQ,Jonathan Garcia #7,PSJA Memorial,89.81,,,,,Single-ply,SBD,M
Boys,89.81,DQ,Pedro Quiroz,Hidalgo Early College,83.46,,,,,Single-ply,SBD,M
Boys,89.81,DQ,Erick Vazquez,Brownsville Veterans Memorial,89.72,231.33,,,,Single-ply,SBD,M
Boys,99.79,DQ,Tony Cerda,La Joya,89.99,,,,,Single-ply,SBD,M
Boys,89.81,DQ,Daniel Yanez,Donna,88.09,242.67,,,,Single-ply,SBD,M
Boys,89.81,DQ,Seth Garcia,Edcouch-Elsa,88.54,251.74,,,,Single-ply,SBD,M
Boys,99.79,DQ,Omar Leal,Brownsville Hanna,89.9,,,,,Single-ply,SBD,M
Boys,99.79,DQ,Joel Moreno,Mission Sharyland,89.99,,,,,Single-ply,SBD,M
Boys,99.79,1,Jerry DeCanini,Weslaco East,98.88,247.21,161.03,251.74,659.98,Single-ply,SBD,M
Boys,99.79,2,Israel Alfaro,Weslaco East,98.88,249.48,170.1,238.14,657.71,Single-ply,SBD,M
Boys,99.79,3,Elijah Sanchez,Edcouch-Elsa,96.3,247.21,158.76,217.72,623.69,Single-ply,SBD,M
Boys,109.77,4,Eddie Gomez,Edcouch-Elsa,99.88,247.21,129.27,229.06,605.55,Single-ply,SBD,M
Boys,99.79,5,Alex Valadez,Brownsville Hanna,97.79,229.06,140.61,229.06,598.74,Single-ply,SBD,M
Boys,109.77,6,Heriberto Hernandez,Weslaco,99.88,231.33,133.81,219.99,585.13,Single-ply,SBD,M
Boys,99.79,7,Marco Zuñiga,San Benito,96.43,233.6,111.13,222.26,566.99,Single-ply,SBD,M
Boys,99.79,8,Jon Vasquez,PSJA Southwest,98.97,231.33,129.27,204.12,564.72,Single-ply,SBD,M
Boys,99.79,9,Ricky Ramirez,PSJA Southwest,93.62,226.8,142.88,192.78,562.45,Single-ply,SBD,M
Boys,99.79,10,Matt Torres,San Benito,98.61,217.72,142.88,183.7,544.31,Single-ply,SBD,M
Boys,99.79,11,Samuel Rodriguez,La Joya,98.79,201.85,133.81,197.31,532.97,Single-ply,SBD,M
Boys,99.79,12,Danny Munguia,Mission Veterans Memorial,99.16,192.78,136.08,192.78,521.63,Single-ply,SBD,M
Boys,109.77,13,Frank Aguilar,La Joya Juarez-Lincoln,100.02,176.9,136.08,195.04,508.02,Single-ply,SBD,M
Boys,99.79,14,Gilbert Guerrero,Donna,97.7,197.31,106.59,195.04,498.95,Single-ply,SBD,M
Boys,99.79,15,Abram Aguilar,La Joya Juarez-Lincoln,90.99,181.44,115.67,188.24,485.34,Single-ply,SBD,M
Boys,99.79,16,Roger Rios,Brownsville Rivera,96.98,183.7,111.13,174.63,469.47,Single-ply,SBD,M
Boys,109.77,17,Juan Resendez,La Joya,99.97,167.83,127.01,174.63,469.47,Single-ply,SBD,M
Boys,99.79,18,Pedro Padron,Rio Hondo,97.43,183.7,106.59,165.56,455.86,Single-ply,SBD,M
Boys,99.79,19,Ruben Guerra,Mission,95.53,167.83,99.79,181.44,449.06,Single-ply,SBD,M
Boys,99.79,20,Adolfo Trevino,Mission Sharyland,97.43,163.29,108.86,147.42,419.57,Single-ply,SBD,M
Boys,99.79,21,Patricio Barredo,McAllen,91.81,163.29,88.45,156.49,408.23,Single-ply,SBD,M
Boys,99.79,22,Joseph Kim,McAllen,92.4,151.95,92.99,163.29,408.23,Single-ply,SBD,M
Boys,99.79,23,Jake Hasler,McAllen Memorial,94.89,147.42,74.84,181.44,403.7,Single-ply,SBD,M
Boys,99.79,24,Gilbert Romero,La Joya Juarez-Lincoln,92.22,165.56,88.45,138.35,392.36,Single-ply,SBD,M
Boys,99.79,DQ,Javier Skinner,Rio Hondo,91.4,199.58,,,,Single-ply,SBD,M
Boys,109.77,1,German Lopez,Weslaco East,108.59,272.16,192.78,240.4,705.34,Single-ply,SBD,M
Boys,109.77,2,Diego Moreno,Brownsville Hanna,108.86,244.94,145.15,238.14,628.23,Single-ply,SBD,M
Boys,109.77,3,Mark Cisneros,Donna,106.05,249.48,124.74,215.46,589.67,Single-ply,SBD,M
Boys,109.77,4,Bryan Lawrence,Brownsville Veterans Memorial,100.38,219.99,127.01,213.19,560.19,Single-ply,SBD,M
Boys,109.77,5,Rollie Villanueva,Brownsville Hanna,107.5,210.92,140.61,204.12,555.65,Single-ply,SBD,M
Boys,109.77,6,Christian Ozuna,La Joya Juarez-Lincoln,102.78,213.19,124.74,195.04,532.97,Single-ply,SBD,M
Boys,109.77,7,Freddy Martinez,Los Fresnos,106.19,195.04,120.2,210.92,526.17,Single-ply,SBD,M
Boys,109.77,8,Anthony Esparza,McAllen Memorial,100.92,181.44,131.54,204.12,517.1,Single-ply,SBD,M
Boys,109.77,9,Roel Sosa,La Joya,103.87,192.78,124.74,181.44,498.95,Single-ply,SBD,M
Boys,109.77,10,Jose de Leon #1,Mission,108.68,197.31,99.79,190.51,487.61,Single-ply,SBD,M
Boys,109.77,11,Jonathan Ojeda,Brownsville Pace,103.24,188.24,106.59,185.97,480.81,Single-ply,SBD,M
Boys,109.77,12,Adam Fuentes,Mercedes,103.78,165.56,111.13,192.78,469.47,Single-ply,SBD,M
Boys,109.77,13,Sammy DeLeon,Brownsville Veterans Memorial,109.63,183.7,106.59,176.9,467.2,Single-ply,SBD,M
Boys,109.77,14,Nick Bazan,McAllen Memorial,103.56,158.76,97.52,158.76,415.04,Single-ply,SBD,M
Boys,109.77,15,Rj Leal,PSJA North,102.06,167.83,95.25,142.88,405.97,Single-ply,SBD,M
Boys,109.77,16,Jarome Torres,McAllen Memorial,104.87,158.76,88.45,147.42,394.63,Single-ply,SBD,M
Boys,109.77,17,Jerry Lopez,McAllen,109.59,124.74,72.57,115.67,312.98,Single-ply,SBD,M
Boys,124.74,DQ,Jose Gomez,Mercedes,109.95,,,,,Single-ply,SBD,M
Boys,109.77,DQ,Michael Alvarez,Brownsville Pace,105.14,,,,,Single-ply,SBD,M
Boys,109.77,DQ,Daniel Gonzalez,Brownsville Pace,105.23,,,,,Single-ply,SBD,M
Boys,109.77,DQ,Saul de la Cruz,La Joya Juarez-Lincoln,103.56,158.76,108.86,,,Single-ply,SBD,M
Boys,109.77,DQ,Manny Hernandez,Rio Hondo,109.77,,,,,Single-ply,SBD,M
Boys,109.77,DQ,Rey Rodriguez,Valley View,102.42,,,,,Single-ply,SBD,M
Boys,124.74+,1,Gabriel Rodriguez,Edcouch-Elsa,124.92,362.87,208.65,265.35,836.88,Single-ply,SBD,M
Boys,124.74,2,Julio Contreras,Edcouch-Elsa,120.75,310.71,142.88,258.55,712.14,Single-ply,SBD,M
Boys,124.74,3,Andrew Salazar,Pharr Valley View,116.66,258.55,192.78,226.8,678.12,Single-ply,SBD,M
Boys,124.74,4,Ramiro Reza,San Benito,124.19,254.01,147.42,226.8,628.23,Single-ply,SBD,M
Boys,124.74,5,Rodney Morales,Brownsville Hanna,112.31,238.14,136.08,215.46,589.67,Single-ply,SBD,M
Boys,124.74,6,Shawn Gonzalez,PSJA Southwest,115.53,226.8,133.81,210.92,571.53,Single-ply,SBD,M
Boys,124.74,7,Jesse Guzman,Brownsville Veterans Memorial,115.67,192.78,147.42,226.8,566.99,Single-ply,SBD,M
Boys,124.74,8,Jesus Casas,Brownsville Pace,113.04,185.97,151.95,222.26,560.19,Single-ply,SBD,M
Boys,124.74,9,Austin Sulewski,Brownsville Pace,117.57,231.33,131.54,183.7,546.58,Single-ply,SBD,M
Boys,124.74,10,Diego Lopez,PSJA North,110.59,219.99,124.74,199.58,544.31,Single-ply,SBD,M
Boys,124.74,11,Alfonso Cerda,Weslaco,123.83,208.65,131.54,204.12,544.31,Single-ply,SBD,M
Boys,124.74,12,Justin Slovak,Brownsville Rivera,118.66,195.04,138.35,204.12,537.51,Single-ply,SBD,M
Boys,124.74,13,Ricky Leyva,La Joya,120.75,226.8,117.93,192.78,537.51,Single-ply,SBD,M
Boys,124.74,14,Andres Hernandez,La Joya Palmview,120.75,208.65,124.74,174.63,508.02,Single-ply,SBD,M
Boys,124.74,15,Javi Gonzalez,Los Fresnos,121.65,183.7,122.47,192.78,498.95,Single-ply,SBD,M
Boys,124.74,16,Armando DeLeon,PSJA,118.39,172.37,111.13,185.97,469.47,Single-ply,SBD,M
Boys,124.74,17,Arturo Ochoa,McAllen,115.21,136.08,88.45,147.42,371.95,Single-ply,SBD,M
Boys,124.74,18,Jonathan Velez,McAllen,112.67,149.69,102.06,113.4,365.14,Single-ply,SBD,M
Boys,124.74,19,Zachary Hettler,McAllen,121.38,142.88,83.91,122.47,349.27,Single-ply,SBD,M
Boys,124.74,DQ,Ricardo Minor,McAllen Memorial,117.03,,,,,Single-ply,SBD,M
Boys,124.74,DQ,Eric Alvarado,PSJA,113.85,174.63,,,,Single-ply,SBD,M
Boys,124.74,DQ,Jonathon Banda,Weslaco East,120.2,276.69,,,,Single-ply,SBD,M
Boys,124.74+,1,Sergio Moralez,Weslaco East,157.4,308.44,215.46,306.17,830.07,Single-ply,SBD,M
Boys,124.74+,2,Zeke Garza,La Joya,148.96,274.42,154.22,276.69,705.34,Single-ply,SBD,M
Boys,124.74+,3,Jimmy DeLeon,Brownsville Veterans Memorial,157.44,272.16,165.56,208.65,646.37,Single-ply,SBD,M
Boys,124.74+,4,Gage Rivas,Brownsville Veterans Memorial,142.65,265.35,158.76,206.38,630.49,Single-ply,SBD,M
Boys,124.74+,5,Josh Trevino,Brownsville Lopez,138.35,231.33,138.35,247.21,616.89,Single-ply,SBD,M
Boys,124.74+,6,Christian Castro,Brownsville Pace,131.45,254.01,113.4,215.46,582.87,Single-ply,SBD,M
Boys,124.74+,7,Escobedo Jacob,PSJA Memorial,126.6,240.4,133.81,204.12,578.33,Single-ply,SBD,M
Boys,124.74+,8,Ronnie Esparza,McAllen Memorial,136.67,192.78,127.01,229.06,548.85,Single-ply,SBD,M
Boys,124.74+,9,Brandon Perez #2,Weslaco,149.41,226.8,124.74,195.04,546.58,Single-ply,SBD,M
Boys,124.74+,10,Danny Melendez,Mercedes,144.42,215.46,115.67,190.51,521.63,Single-ply,SBD,M
Boys,124.74+,11,Daniel Solis,La Joya,151.91,192.78,106.59,192.78,492.15,Single-ply,SBD,M
Boys,124.74+,12,Marcus Ascencion,Mission Veterans Memorial,140.07,192.78,106.59,170.1,469.47,Single-ply,SBD,M
Boys,124.74+,DQ,Bruce Castro,Los Fresnos,140.66,,,,,Single-ply,SBD,M
Boys,124.74+,DQ,Carlos Alvarez,La Joya Palmview,156.67,,,,,Single-ply,SBD,M
